{
    "event": "get_bell_data",
    "url": "https://api.backand.com/1/objects/bells",
    "requestType": "GET",
    "headers": {
        "AnonymousToken": "{{backand_anonymous_token}}"
    },
    "query": {
        "filter": "[{\"fieldName\":\"{{device_type}}\",\"operator\":\"equals\",\"value\":\"{{device_id}}\"}]"
    },
    "mydevices": true,
    "noDefaults": true,
    "responseTemplate":"{{#data}}{{id}}|{{name}}|{{away}}|{{welcome_message}}|{{coming_message}}|{{come_up_message}}|{{no_answer_message}}|{{particle_display_id}}|{{particle_bell_id}}|{{avatar}}|{{ringing}}|{{particle_access_token}}|{{last_ring_on}}{{/data}}"
}
